sim/waves/i2c_simple_imp.vcd
$date
	Thu Mar  6 11:13:22 2025
$end
$version
	Icarus Verilog
$end
$timescale
	1ps
$end
$scope module i2c_controller_tb $end
$scope module master $end
$var wire 7 ! addr [6:0] $end
$var wire 1 " clk $end
$var wire 8 # data_in [7:0] $end
$var wire 1 $ enable $end
$var wire 1 % i2c_sda $end
$var wire 1 & rst $end
$var wire 1 ' rw $end
$var wire 1 ( ready $end
$var wire 1 ) i2c_scl $end
$var parameter 32 * ADDRESS $end
$var parameter 32 + DIVIDE_BY $end
$var parameter 32 , IDLE $end
$var parameter 32 - READ_ACK $end
$var parameter 32 . READ_ACK2 $end
$var parameter 32 / READ_DATA $end
$var parameter 32 0 START $end
$var parameter 32 1 STOP $end
$var parameter 32 2 WRITE_ACK $end
$var parameter 32 3 WRITE_DATA $end
$var reg 8 4 counter [7:0] $end
$var reg 8 5 counter2 [7:0] $end
$var reg 8 6 data_out [7:0] $end
$var reg 1 7 i2c_clk $end
$var reg 1 8 i2c_scl_enable $end
$var reg 8 9 saved_addr [7:0] $end
$var reg 8 : saved_data [7:0] $end
$var reg 1 ; sda_out $end
$var reg 8 < state [7:0] $end
$var reg 1 = write_enable $end
$upscope $end
$upscope $end
$enddefinitions $end
$comment Show the parameter values. $end
$dumpall
b100 3
b101 2
b1000 1
b1 0
b110 /
b111 .
b11 -
b0 ,
b1 +
b10 *
$end
#0
$dumpvars
1=
b0 <
1;
bx :
bx 9
08
17
bx 6
b0 5
bx 4
1)
0(
x'
1&
1%
0$
bx #
0"
bx !
$end
#1000
b1 5
1"
#2000
0"
#3000
b10 5
1"
#4000
0"
#5000
b11 5
1"
#6000
0"
#7000
b100 5
1"
#8000
0"
#9000
b101 5
1"
#10000
0"
#11000
b110 5
1"
#12000
0"
#13000
b111 5
1"
#14000
0"
#15000
b1000 5
1"
#16000
0"
#17000
b1001 5
1"
#18000
0"
#19000
b1010 5
1"
#20000
0"
#21000
b1011 5
1"
#22000
0"
#23000
b1100 5
1"
#24000
0"
#25000
b1101 5
1"
#26000
0"
#27000
b1110 5
1"
#28000
0"
#29000
b1111 5
1"
#30000
1(
0"
1$
0'
b10101010 #
b101010 !
0&
#31000
b10000 5
1"
#32000
0"
#33000
b10001 5
1"
#34000
0"
#35000
b10010 5
1"
#36000
0"
#37000
b10011 5
1"
#38000
0"
#39000
b10100 5
1"
#40000
0"
0$
#41000
b10101 5
1"
#42000
0"
#43000
b10110 5
1"
#44000
0"
#45000
b10111 5
1"
#46000
0"
#47000
b11000 5
1"
#48000
0"
#49000
b11001 5
1"
#50000
0"
#51000
b11010 5
1"
#52000
0"
#53000
b11011 5
1"
#54000
0"
#55000
b11100 5
1"
#56000
0"
#57000
b11101 5
1"
#58000
0"
#59000
b11110 5
1"
#60000
0"
#61000
b11111 5
1"
#62000
0"
#63000
b100000 5
1"
#64000
0"
#65000
b100001 5
1"
#66000
0"
#67000
b100010 5
1"
#68000
0"
#69000
b100011 5
1"
#70000
0"
#71000
b100100 5
1"
#72000
0"
#73000
b100101 5
1"
#74000
0"
#75000
b100110 5
1"
#76000
0"
#77000
b100111 5
1"
#78000
0"
#79000
b101000 5
1"
#80000
0"
#81000
b101001 5
1"
#82000
0"
#83000
b101010 5
1"
#84000
0"
#85000
b101011 5
1"
#86000
0"
#87000
b101100 5
1"
#88000
0"
#89000
b101101 5
1"
#90000
0"
#91000
b101110 5
1"
#92000
0"
#93000
b101111 5
1"
#94000
0"
#95000
b110000 5
1"
#96000
0"
#97000
b110001 5
1"
#98000
0"
#99000
b110010 5
1"
#100000
0"
#101000
b110011 5
1"
#102000
0"
#103000
b110100 5
1"
#104000
0"
#105000
b110101 5
1"
#106000
0"
#107000
b110110 5
1"
#108000
0"
#109000
b110111 5
1"
#110000
0"
#111000
b111000 5
1"
#112000
0"
#113000
b111001 5
1"
#114000
0"
#115000
b111010 5
1"
#116000
0"
#117000
b111011 5
1"
#118000
0"
#119000
b111100 5
1"
#120000
0"
#121000
b111101 5
1"
#122000
0"
#123000
b111110 5
1"
#124000
0"
#125000
b111111 5
1"
#126000
0"
#127000
b1000000 5
1"
#128000
0"
#129000
b1000001 5
1"
#130000
0"
#131000
b1000010 5
1"
#132000
0"
#133000
b1000011 5
1"
#134000
0"
#135000
b1000100 5
1"
#136000
0"
#137000
b1000101 5
1"
#138000
0"
#139000
b1000110 5
1"
